name,age_in_office,political_party,education,facial_hair,horoscope,personality
Filbert Hankerdoodle,47,Democratic,Law,Beard,Cancer,Extrovert
Mitchel Leonardi,51,Democratic,Law,Moustache,Aries,Introvert
Raimondo Basterfield,63,Republican,Military,Beard,Scorpio,Introvert
Wallis Ruskin,62,Republican,Business,Nothing,Aquerius,Extrovert
Rickey Yutang,61,Democratic,Law,Nothing,Aries,Introvert